SB 12 5 6 11 9 0 10 13 3 14 15 8 4 7 1 2
PERM 0 16 32 48 1 17 33 49 2 18 34 50 3 19 35 51 4 20 36 52 5 21 37 53 6 22 38 54 7 23 39 55 8 24 40 56 9 25 41 57 10 26 42 58 11 27 43 59 12 28 44 60 13 29 45 61 14 30 46 62 15 31 47 63
nrSBp 2
nrSBc 2
DINa 0 0 0 0 0 0 0 0 0 0 0 0 0 0 0 0 0 0 0 0 0 0 0 0 0 0 0 0 0 0 0 0 1 0 0 1 1 0 0 1 1 0 0 1 0 0 0 0 0 0 0 0 0 0 0 0 0 0 0 0 0 0 0 0 

DINb 3 3 3 3 3 3 3 3 3 3 3 3 3 3 3 3 3 3 3 3 3 3 3 3 3 3 3 3 3 3 3 3 3 3 3 3 3 3 3 3 3 3 3 3 3 3 3 3 3 3 3 3 3 3 3 3 3 3 3 3 3 3 3 3

DOUTb 1 0 0 1 0 0 0 0 0 0 0 0 0 0 0 0 0 0 0 0 0 0 0 0 0 0 0 0 0 0 0 0 1 0 0 1 0 0 0 0 0 0 0 0 0 0 0 0 0 0 0 0 0 0 0 0 0 0 0 0 0 0 0 0

DOUTa 3 3 3 3 3 3 3 3 3 3 3 3 3 3 3 3 3 3 3 3 3 3 3 3 3 3 3 3 3 3 3 3 3 3 3 3 3 3 3 3 3 3 3 3 3 3 3 3 3 3 3 3 3 3 3 3 3 3 3 3 3 3 3 3

DKEY 0 0 0 0 0 0 0 0 0 0 0 0 0 0 0 0 0 0 0 0 0 0 0 0 0 0 0 0 0 0 0 0 0 0 0 0 0 0 0 0 0 0 0 0 0 0 0 0 0 0 0 0 0 0 0 0 0 0 0 0 0 0 0 0 0 0 0 0 0 0 0 0 0 0 0 0 0 0 0 0 0 0 0 0 0 0 0 0 0 0 0 0 0 0 0 0 0 0 0 0 0 0 0 0 0 0 0 0 0 0 0 0 0 0 0 0 0 0 0 0 0 0 0 0 0 0 0 0 0 0 0 0 0 0 0 0 0 0 0 0 0 0 0 0 0 0 0 0 0 0 0 0 0 0 0 0 0 0 0 0 0 0 0 0 0 0 0 0 0 0 0 0 0 0 0 0 0 0 0 0 0 0 0 0 0 0 0 0 0 0 0 0 0 0 0 0 0 0 0 0 0 0 0 0 0 0 0 0 0 0 0 0 0 0 0 0 0 0 0 0 0 0 0 0 0 0 0 0 0 0 0 0 0 0 0 0 0 0 0 0 0 0 0 0 0 0 0 0 0 0 0 0 0 0 0 0 0 0 0 0 0 0 0 0 0 0 0 0 0 0 0 0 0 0 0 0 0 0 0 0 0 0 0 0 0 0 0 0 0 0 0 0 0 0 0 0 0 0 0 0 0 0 0 0 0 0 0 0 0 0 0 0 0 0 0 0 0 0 0 0 0 0 0 0 0 0 0 0 0 0 0 0 0 0 0 0 0 0 0 0 0 0 0 0 0 0 0 0 0 0 0 0 0 0 0 0 0 0 0 0 0 0 0 0 0 0 0 0 0 0 0 0 0 0 0 0 0 0 0 0 0 0 0 0 0 0 0 0 0 0 0 0 0 0 0 0 0 0 0 0 0 0 0 0 0 0 0 0 0 0 0 0 0 0 0 0 0 0 0 0 0 0 0 0 0 0 0 0 0 0 0 0 0 0 0 0 0 0 0 0 0 0 0 0 0 0 0 0 0 0 0 0 0 0 0 0 0 0 0 0 0 0 0 0 0 0 0 0 0 0 0 0 0 0 0 0 0 0 0 0 0 0 0 0 0 0 0 0 0 0 0 0 0 0 0 0 0 0 0 0 0 0 0 0 0 0 0 0 0 0 0 0 0 0 0 0 0 0 0 0 0 0 0 0 0 0 0 0 0 0 0 0 0 0 0 0 0 0 0 0 0 0 0 0 0 0 0 0 0 0 0 0 0 0 0 0 0 0 0 0 0 0 0 0 0 0 0 0 0 0 0 0 0 0 0 0 0 0 0 0 0 0 0 0 0 0 0 0 0 0 0 0 0 0 0 0 0 0 0 0 0 0 0 0 0 0 0 0 0 0 0 0 0 0 0 0 0 0 0 0 0 0 0 0 0 0 0 0 0 0 0 0 0 0 0 0 0 0 0 0 0 0 0 0 0 0 0 0 0 0 0 0 0 0 0 0 0 0 0 0 0 0 0 0 0 0 0 0 0 0 0 0 0 0 0 0 0 0 0 0 0 0 0 0 0 0 0 0 0 0 0 0 0 0 0 0 0 0 0 0 0 0 0 0 0 0 0 0 0 0 0 0 0 0 0 0 0 0 0 0 0 0 0 0 0 0 0 0 0 0 0 0 0 0 0 0 0 0 0 0 0 0 0 0 0 0 0 0 0 0 0 0 0 0 0 0 0 0 0 0 0 0 0 0 0 0 0 0 0 0 0 0 0 0 0 0 0 0 0 0 0 0 0 0 0 0 0 0 0 0 0 0 0 0 0 0 0 0 0 0 0 0 0 0 0 0 0 0 0 0 0 0 0 0 0 0 0 0 0 0 0 0 0 0 0 0 0 0 0 0 0 0 0 0 0 0 0 0 0 0 0 0 0 0 0 0 0 0 0 0 0 0 0 0 0 0 0 0 0 0 0 0 0 0 0 0 0 0 0 0 0 0 0 0 0 0 0 0 0 0 0 0 0 0 0 0 0 0 0 0 0 0 0 0 0 0 0 0 0 0 0 0 0 0 0 0 0 0 0 0 0 0 0 0 0 0 0 0 0 0 0 0 0 0 0 0 0 0 0 0 0 0 0 0 0 0 0 0 0 0 0 0 0 0 0 0 0 0 0 0 0 0 0 0 0 0 0 0 0 0 0 0 0 0 0 0 0 0 0 0 0 0 0 0 0 0 0 0 0 0 0 0 0 0 0 0 0 0 0 0 0 0 0 0 0 0 0 0 0 0 0 0 0 0 0 0 0 0 0 0 0 0 0 0 0 0 0 0 0 0 0 0 0 0 0 0 0 0 0 0 0 0 0 0 0 0 0 0 0 0 0 0 0 0 0 0 0 0 0 0 0 0 0 0 0 0 0 0 0 0 0 0 0 0 0 0 0 0 0 0 0 0 0 0 0 0 0 0 0 0 0 0 0 0 0 0 0 0 0 0 0 0 0 0 0 0 0 0 0 0 0 0 0 0 0 0 0 0 0 0 0 0 0 0 0 0 0 0 0 0 0 0 0 0 0 0 0 0 0 0 0 0 0 0 0 0 0 0 0 0 0 0 0 0 0 0 0 0 0 0 0 0

nrR 18

KS
k1[0] + k0[19]
k1[1] + k0[20]
k1[2] + k0[21]
k1[3] + k0[22]
k1[4] + k0[23]
k1[5] + k0[24]
k1[6] + k0[25]
k1[7] + k0[26]
k1[8] + k0[27]
k1[9] + k0[28]
k1[10] + k0[29]
k1[11] + k0[30]
k1[12] + k0[31]
k1[13] + k0[32]
k1[14] + k0[33]
k1[15] + k0[34]
k1[16] + k0[35]
k1[17] + k0[36]
k1[18] + k0[37]
k1[19] + k0[38]
k1[20] + k0[39]
k1[21] + k0[40]
k1[22] + k0[41]
k1[23] + k0[42]
k1[24] + k0[43]
k1[25] + k0[44]
k1[26] + k0[45]
k1[27] + k0[46]
k1[28] + k0[47]
k1[29] + k0[48]
k1[30] + k0[49]
k1[31] + k0[50]
k1[32] + k0[51]
k1[33] + k0[52]
k1[34] + k0[53]
k1[35] + k0[54]
k1[36] + k0[55]
k1[37] + k0[56]
k1[38] + k0[57]
k1[39] + k0[58]
k1[40] + k0[59]
k1[41] + k0[60]
k1[42] + k0[61]
k1[43] + k0[62]
k1[44] + k0[63]
k1[61] + k0[0]
k1[62] + k0[1]
k1[63] + k0[2]
k2[0] + k0[19]
k2[1] + k0[20]
k2[2] + k0[21]
k2[3] + k0[22]
k2[4] + k0[23]
k2[5] + k0[24]
k2[6] + k0[25]
k2[7] + k0[26]
k2[8] + k0[27]
k2[9] + k0[28]
k2[10] + k0[29]
k2[11] + k0[30]
k2[12] + k0[31]
k2[13] + k0[32]
k2[14] + k0[33]
k2[15] + k0[34]
k2[16] + k0[35]
k2[17] + k0[36]
k2[18] + k0[37]
k2[19] + k0[38]
k2[20] + k0[39]
k2[21] + k0[40]
k2[22] + k0[41]
k2[23] + k0[42]
k2[24] + k0[43]
k2[25] + k0[44]
k2[26] + k0[45]
k2[27] + k0[46]
k2[28] + k0[47]
k2[29] + k0[48]
k2[30] + k0[49]
k2[31] + k0[50]
k2[32] + k0[51]
k2[33] + k0[52]
k2[34] + k0[53]
k2[35] + k0[54]
k2[36] + k0[55]
k2[37] + k0[56]
k2[38] + k0[57]
k2[39] + k0[58]
k2[40] + k0[59]
k2[41] + k0[60]
k2[42] + k0[61]
k2[43] + k0[62]
k2[44] + k0[63]
k2[45] + k1[45]
k2[46] + k1[46]
k2[47] + k1[47]
k2[48] + k1[48]
k2[49] + k1[49]
k2[50] + k1[50]
k2[51] + k1[51]
k2[52] + k1[52]
k2[53] + k1[53]
k2[54] + k1[54]
k2[55] + k1[55]
k2[56] + k1[56]
k2[57] + k1[57]
k2[58] + k1[58]
k2[59] + k1[59]
k2[60] + k1[60]
k2[61] + k0[0]
k2[62] + k0[1]
k2[63] + k0[2]
k3[0] + k0[38]
k3[1] + k0[39]
k3[2] + k0[40]
k3[3] + k0[41]
k3[4] + k0[42]
k3[5] + k0[43]
k3[6] + k0[44]
k3[7] + k0[45]
k3[8] + k0[46]
k3[9] + k0[47]
k3[10] + k0[48]
k3[11] + k0[49]
k3[12] + k0[50]
k3[13] + k0[51]
k3[14] + k0[52]
k3[15] + k0[53]
k3[16] + k0[54]
k3[17] + k0[55]
k3[18] + k0[56]
k3[19] + k0[57]
k3[20] + k0[58]
k3[21] + k0[59]
k3[22] + k0[60]
k3[23] + k0[61]
k3[24] + k0[62]
k3[25] + k0[63]
k3[26] + k1[45]
k3[27] + k1[46]
k3[28] + k1[47]
k3[29] + k1[48]
k3[30] + k1[49]
k3[31] + k1[50]
k3[32] + k1[51]
k3[33] + k1[52]
k3[34] + k1[53]
k3[35] + k1[54]
k3[36] + k1[55]
k3[37] + k1[56]
k3[38] + k1[57]
k3[39] + k1[58]
k3[40] + k1[59]
k3[41] + k1[60]
k3[42] + k0[0]
k3[43] + k0[1]
k3[44] + k0[2]
k3[45] + k0[3]
k3[46] + k0[4]
k3[47] + k0[5]
k3[48] + k0[6]
k3[49] + k0[7]
k3[50] + k0[8]
k3[51] + k0[9]
k3[52] + k0[10]
k3[53] + k0[11]
k3[54] + k0[12]
k3[55] + k0[13]
k3[56] + k0[14]
k3[57] + k0[15]
k3[58] + k0[16]
k3[59] + k0[17]
k3[60] + k0[18]
k3[61] + k0[19]
k3[62] + k0[20]
k3[63] + k0[21]
k4[0] + k0[57]
k4[1] + k0[58]
k4[2] + k0[59]
k4[3] + k0[60]
k4[4] + k0[61]
k4[5] + k0[62]
k4[6] + k0[63]
k4[7] + k1[45]
k4[8] + k1[46]
k4[9] + k1[47]
k4[10] + k1[48]
k4[11] + k1[49]
k4[12] + k1[50]
k4[13] + k1[51]
k4[14] + k1[52]
k4[15] + k1[53]
k4[16] + k1[54]
k4[17] + k1[55]
k4[18] + k1[56]
k4[19] + k1[57]
k4[20] + k1[58]
k4[21] + k1[59]
k4[22] + k1[60]
k4[23] + k0[0]
k4[24] + k0[1]
k4[25] + k0[2]
k4[26] + k0[3]
k4[27] + k0[4]
k4[28] + k0[5]
k4[29] + k0[6]
k4[30] + k0[7]
k4[31] + k0[8]
k4[32] + k0[9]
k4[33] + k0[10]
k4[34] + k0[11]
k4[35] + k0[12]
k4[36] + k0[13]
k4[37] + k0[14]
k4[38] + k0[15]
k4[39] + k0[16]
k4[40] + k0[17]
k4[41] + k0[18]
k4[42] + k0[19]
k4[43] + k0[20]
k4[44] + k0[21]
k4[45] + k0[22]
k4[46] + k0[23]
k4[47] + k0[24]
k4[48] + k0[25]
k4[49] + k0[26]
k4[50] + k0[27]
k4[51] + k0[28]
k4[52] + k0[29]
k4[53] + k0[30]
k4[54] + k0[31]
k4[55] + k0[32]
k4[56] + k0[33]
k4[57] + k0[34]
k4[58] + k0[35]
k4[59] + k0[36]
k4[60] + k0[37]
k4[61] + k0[38]
k4[62] + k0[39]
k4[63] + k0[40]
k5[0] + k1[57]
k5[1] + k1[58]
k5[2] + k1[59]
k5[3] + k1[60]
k5[4] + k0[0]
k5[5] + k0[1]
k5[6] + k0[2]
k5[7] + k0[3]
k5[8] + k0[4]
k5[9] + k0[5]
k5[10] + k0[6]
k5[11] + k0[7]
k5[12] + k0[8]
k5[13] + k0[9]
k5[14] + k0[10]
k5[15] + k0[11]
k5[16] + k0[12]
k5[17] + k0[13]
k5[18] + k0[14]
k5[19] + k0[15]
k5[20] + k0[16]
k5[21] + k0[17]
k5[22] + k0[18]
k5[23] + k0[19]
k5[24] + k0[20]
k5[25] + k0[21]
k5[26] + k0[22]
k5[27] + k0[23]
k5[28] + k0[24]
k5[29] + k0[25]
k5[30] + k0[26]
k5[31] + k0[27]
k5[32] + k0[28]
k5[33] + k0[29]
k5[34] + k0[30]
k5[35] + k0[31]
k5[36] + k0[32]
k5[37] + k0[33]
k5[38] + k0[34]
k5[39] + k0[35]
k5[40] + k0[36]
k5[41] + k0[37]
k5[42] + k0[38]
k5[43] + k0[39]
k5[44] + k0[40]
k5[45] + k0[41]
k5[46] + k0[42]
k5[47] + k0[43]
k5[48] + k0[44]
k5[49] + k0[45]
k5[50] + k0[46]
k5[51] + k0[47]
k5[52] + k0[48]
k5[53] + k0[49]
k5[54] + k0[50]
k5[55] + k0[51]
k5[56] + k0[52]
k5[57] + k0[53]
k5[58] + k0[54]
k5[59] + k0[55]
k5[60] + k0[56]
k5[61] + k0[57]
k5[62] + k0[58]
k5[63] + k0[59]
k6[0] + k0[15]
k6[1] + k0[16]
k6[2] + k0[17]
k6[3] + k0[18]
k6[4] + k0[19]
k6[5] + k0[20]
k6[6] + k0[21]
k6[7] + k0[22]
k6[8] + k0[23]
k6[9] + k0[24]
k6[10] + k0[25]
k6[11] + k0[26]
k6[12] + k0[27]
k6[13] + k0[28]
k6[14] + k0[29]
k6[15] + k0[30]
k6[16] + k0[31]
k6[17] + k0[32]
k6[18] + k0[33]
k6[19] + k0[34]
k6[20] + k0[35]
k6[21] + k0[36]
k6[22] + k0[37]
k6[23] + k0[38]
k6[24] + k0[39]
k6[25] + k0[40]
k6[26] + k0[41]
k6[27] + k0[42]
k6[28] + k0[43]
k6[29] + k0[44]
k6[30] + k0[45]
k6[31] + k0[46]
k6[32] + k0[47]
k6[33] + k0[48]
k6[34] + k0[49]
k6[35] + k0[50]
k6[36] + k0[51]
k6[37] + k0[52]
k6[38] + k0[53]
k6[39] + k0[54]
k6[40] + k0[55]
k6[41] + k0[56]
k6[42] + k0[57]
k6[43] + k0[58]
k6[44] + k0[59]
k6[45] + k0[60]
k6[46] + k0[61]
k6[47] + k0[62]
k6[48] + k0[63]
k6[49] + k1[45]
k6[50] + k1[46]
k6[51] + k1[47]
k6[52] + k1[48]
k6[53] + k1[49]
k6[54] + k1[50]
k6[55] + k1[51]
k6[56] + k1[52]
k6[57] + k1[53]
k6[58] + k1[54]
k6[59] + k1[55]
k6[60] + k1[56]
k6[61] + k1[57]
k6[62] + k1[58]
k6[63] + k1[59]
k7[0] + k0[34]
k7[1] + k0[35]
k7[2] + k0[36]
k7[3] + k0[37]
k7[4] + k0[38]
k7[5] + k0[39]
k7[6] + k0[40]
k7[7] + k0[41]
k7[8] + k0[42]
k7[9] + k0[43]
k7[10] + k0[44]
k7[11] + k0[45]
k7[12] + k0[46]
k7[13] + k0[47]
k7[14] + k0[48]
k7[15] + k0[49]
k7[16] + k0[50]
k7[17] + k0[51]
k7[18] + k0[52]
k7[19] + k0[53]
k7[20] + k0[54]
k7[21] + k0[55]
k7[22] + k0[56]
k7[23] + k0[57]
k7[24] + k0[58]
k7[25] + k0[59]
k7[26] + k0[60]
k7[27] + k0[61]
k7[28] + k0[62]
k7[29] + k0[63]
k7[30] + k1[45]
k7[31] + k1[46]
k7[32] + k1[47]
k7[33] + k1[48]
k7[34] + k1[49]
k7[35] + k1[50]
k7[36] + k1[51]
k7[37] + k1[52]
k7[38] + k1[53]
k7[39] + k1[54]
k7[40] + k1[55]
k7[41] + k1[56]
k7[42] + k1[57]
k7[43] + k1[58]
k7[44] + k1[59]
k7[45] + k1[60]
k7[46] + k0[0]
k7[47] + k0[1]
k7[48] + k0[2]
k7[49] + k0[3]
k7[50] + k0[4]
k7[51] + k0[5]
k7[52] + k0[6]
k7[53] + k0[7]
k7[54] + k0[8]
k7[55] + k0[9]
k7[56] + k0[10]
k7[57] + k0[11]
k7[58] + k0[12]
k7[59] + k0[13]
k7[60] + k0[14]
k7[61] + k0[15]
k7[62] + k0[16]
k7[63] + k0[17]
k8[0] + k0[53]
k8[1] + k0[54]
k8[2] + k0[55]
k8[3] + k0[56]
k8[4] + k0[57]
k8[5] + k0[58]
k8[6] + k0[59]
k8[7] + k0[60]
k8[8] + k0[61]
k8[9] + k0[62]
k8[10] + k0[63]
k8[11] + k1[45]
k8[12] + k1[46]
k8[13] + k1[47]
k8[14] + k1[48]
k8[15] + k1[49]
k8[16] + k1[50]
k8[17] + k1[51]
k8[18] + k1[52]
k8[19] + k1[53]
k8[20] + k1[54]
k8[21] + k1[55]
k8[22] + k1[56]
k8[23] + k1[57]
k8[24] + k1[58]
k8[25] + k1[59]
k8[26] + k1[60]
k8[27] + k0[0]
k8[28] + k0[1]
k8[29] + k0[2]
k8[30] + k0[3]
k8[31] + k0[4]
k8[32] + k0[5]
k8[33] + k0[6]
k8[34] + k0[7]
k8[35] + k0[8]
k8[36] + k0[9]
k8[37] + k0[10]
k8[38] + k0[11]
k8[39] + k0[12]
k8[40] + k0[13]
k8[41] + k0[14]
k8[42] + k0[15]
k8[43] + k0[16]
k8[44] + k0[17]
k8[45] + k0[18]
k8[46] + k0[19]
k8[47] + k0[20]
k8[48] + k0[21]
k8[49] + k0[22]
k8[50] + k0[23]
k8[51] + k0[24]
k8[52] + k0[25]
k8[53] + k0[26]
k8[54] + k0[27]
k8[55] + k0[28]
k8[56] + k0[29]
k8[57] + k0[30]
k8[58] + k0[31]
k8[59] + k0[32]
k8[60] + k0[33]
k8[61] + k0[34]
k8[62] + k0[35]
k8[63] + k0[36]
k9[0] + k1[53]
k9[1] + k1[54]
k9[2] + k1[55]
k9[3] + k1[56]
k9[4] + k1[57]
k9[5] + k1[58]
k9[6] + k1[59]
k9[7] + k1[60]
k9[8] + k0[0]
k9[9] + k0[1]
k9[10] + k0[2]
k9[11] + k0[3]
k9[12] + k0[4]
k9[13] + k0[5]
k9[14] + k0[6]
k9[15] + k0[7]
k9[16] + k0[8]
k9[17] + k0[9]
k9[18] + k0[10]
k9[19] + k0[11]
k9[20] + k0[12]
k9[21] + k0[13]
k9[22] + k0[14]
k9[23] + k0[15]
k9[24] + k0[16]
k9[25] + k0[17]
k9[26] + k0[18]
k9[27] + k0[19]
k9[28] + k0[20]
k9[29] + k0[21]
k9[30] + k0[22]
k9[31] + k0[23]
k9[32] + k0[24]
k9[33] + k0[25]
k9[34] + k0[26]
k9[35] + k0[27]
k9[36] + k0[28]
k9[37] + k0[29]
k9[38] + k0[30]
k9[39] + k0[31]
k9[40] + k0[32]
k9[41] + k0[33]
k9[42] + k0[34]
k9[43] + k0[35]
k9[44] + k0[36]
k9[45] + k0[37]
k9[46] + k0[38]
k9[47] + k0[39]
k9[48] + k0[40]
k9[49] + k0[41]
k9[50] + k0[42]
k9[51] + k0[43]
k9[52] + k0[44]
k9[53] + k0[45]
k9[54] + k0[46]
k9[55] + k0[47]
k9[56] + k0[48]
k9[57] + k0[49]
k9[58] + k0[50]
k9[59] + k0[51]
k9[60] + k0[52]
k9[61] + k0[53]
k9[62] + k0[54]
k9[63] + k0[55]
k10[0] + k0[11]
k10[1] + k0[12]
k10[2] + k0[13]
k10[3] + k0[14]
k10[4] + k0[15]
k10[5] + k0[16]
k10[6] + k0[17]
k10[7] + k0[18]
k10[8] + k0[19]
k10[9] + k0[20]
k10[10] + k0[21]
k10[11] + k0[22]
k10[12] + k0[23]
k10[13] + k0[24]
k10[14] + k0[25]
k10[15] + k0[26]
k10[16] + k0[27]
k10[17] + k0[28]
k10[18] + k0[29]
k10[19] + k0[30]
k10[20] + k0[31]
k10[21] + k0[32]
k10[22] + k0[33]
k10[23] + k0[34]
k10[24] + k0[35]
k10[25] + k0[36]
k10[26] + k0[37]
k10[27] + k0[38]
k10[28] + k0[39]
k10[29] + k0[40]
k10[30] + k0[41]
k10[31] + k0[42]
k10[32] + k0[43]
k10[33] + k0[44]
k10[34] + k0[45]
k10[35] + k0[46]
k10[36] + k0[47]
k10[37] + k0[48]
k10[38] + k0[49]
k10[39] + k0[50]
k10[40] + k0[51]
k10[41] + k0[52]
k10[42] + k0[53]
k10[43] + k0[54]
k10[44] + k0[55]
k10[45] + k0[56]
k10[46] + k0[57]
k10[47] + k0[58]
k10[48] + k0[59]
k10[49] + k0[60]
k10[50] + k0[61]
k10[51] + k0[62]
k10[52] + k0[63]
k10[53] + k1[45]
k10[54] + k1[46]
k10[55] + k1[47]
k10[56] + k1[48]
k10[57] + k1[49]
k10[58] + k1[50]
k10[59] + k1[51]
k10[60] + k1[52]
k10[61] + k1[53]
k10[62] + k1[54]
k10[63] + k1[55]
k11[0] + k0[30]
k11[1] + k0[31]
k11[2] + k0[32]
k11[3] + k0[33]
k11[4] + k0[34]
k11[5] + k0[35]
k11[6] + k0[36]
k11[7] + k0[37]
k11[8] + k0[38]
k11[9] + k0[39]
k11[10] + k0[40]
k11[11] + k0[41]
k11[12] + k0[42]
k11[13] + k0[43]
k11[14] + k0[44]
k11[15] + k0[45]
k11[16] + k0[46]
k11[17] + k0[47]
k11[18] + k0[48]
k11[19] + k0[49]
k11[20] + k0[50]
k11[21] + k0[51]
k11[22] + k0[52]
k11[23] + k0[53]
k11[24] + k0[54]
k11[25] + k0[55]
k11[26] + k0[56]
k11[27] + k0[57]
k11[28] + k0[58]
k11[29] + k0[59]
k11[30] + k0[60]
k11[31] + k0[61]
k11[32] + k0[62]
k11[33] + k0[63]
k11[34] + k1[45]
k11[35] + k1[46]
k11[36] + k1[47]
k11[37] + k1[48]
k11[38] + k1[49]
k11[39] + k1[50]
k11[40] + k1[51]
k11[41] + k1[52]
k11[42] + k1[53]
k11[43] + k1[54]
k11[44] + k1[55]
k11[45] + k1[56]
k11[46] + k1[57]
k11[47] + k1[58]
k11[48] + k1[59]
k11[49] + k1[60]
k11[50] + k0[0]
k11[51] + k0[1]
k11[52] + k0[2]
k11[53] + k0[3]
k11[54] + k0[4]
k11[55] + k0[5]
k11[56] + k0[6]
k11[57] + k0[7]
k11[58] + k0[8]
k11[59] + k0[9]
k11[60] + k0[10]
k11[61] + k0[11]
k11[62] + k0[12]
k11[63] + k0[13]
k12[0] + k0[49]
k12[1] + k0[50]
k12[2] + k0[51]
k12[3] + k0[52]
k12[4] + k0[53]
k12[5] + k0[54]
k12[6] + k0[55]
k12[7] + k0[56]
k12[8] + k0[57]
k12[9] + k0[58]
k12[10] + k0[59]
k12[11] + k0[60]
k12[12] + k0[61]
k12[13] + k0[62]
k12[14] + k0[63]
k12[15] + k1[45]
k12[16] + k1[46]
k12[17] + k1[47]
k12[18] + k1[48]
k12[19] + k1[49]
k12[20] + k1[50]
k12[21] + k1[51]
k12[22] + k1[52]
k12[23] + k1[53]
k12[24] + k1[54]
k12[25] + k1[55]
k12[26] + k1[56]
k12[27] + k1[57]
k12[28] + k1[58]
k12[29] + k1[59]
k12[30] + k1[60]
k12[31] + k0[0]
k12[32] + k0[1]
k12[33] + k0[2]
k12[34] + k0[3]
k12[35] + k0[4]
k12[36] + k0[5]
k12[37] + k0[6]
k12[38] + k0[7]
k12[39] + k0[8]
k12[40] + k0[9]
k12[41] + k0[10]
k12[42] + k0[11]
k12[43] + k0[12]
k12[44] + k0[13]
k12[45] + k0[14]
k12[46] + k0[15]
k12[47] + k0[16]
k12[48] + k0[17]
k12[49] + k0[18]
k12[50] + k0[19]
k12[51] + k0[20]
k12[52] + k0[21]
k12[53] + k0[22]
k12[54] + k0[23]
k12[55] + k0[24]
k12[56] + k0[25]
k12[57] + k0[26]
k12[58] + k0[27]
k12[59] + k0[28]
k12[60] + k0[29]
k12[61] + k0[30]
k12[62] + k0[31]
k12[63] + k0[32]
k13[0] + k1[49]
k13[1] + k1[50]
k13[2] + k1[51]
k13[3] + k1[52]
k13[4] + k1[53]
k13[5] + k1[54]
k13[6] + k1[55]
k13[7] + k1[56]
k13[8] + k1[57]
k13[9] + k1[58]
k13[10] + k1[59]
k13[11] + k1[60]
k13[12] + k0[0]
k13[13] + k0[1]
k13[14] + k0[2]
k13[15] + k0[3]
k13[16] + k0[4]
k13[17] + k0[5]
k13[18] + k0[6]
k13[19] + k0[7]
k13[20] + k0[8]
k13[21] + k0[9]
k13[22] + k0[10]
k13[23] + k0[11]
k13[24] + k0[12]
k13[25] + k0[13]
k13[26] + k0[14]
k13[27] + k0[15]
k13[28] + k0[16]
k13[29] + k0[17]
k13[30] + k0[18]
k13[31] + k0[19]
k13[32] + k0[20]
k13[33] + k0[21]
k13[34] + k0[22]
k13[35] + k0[23]
k13[36] + k0[24]
k13[37] + k0[25]
k13[38] + k0[26]
k13[39] + k0[27]
k13[40] + k0[28]
k13[41] + k0[29]
k13[42] + k0[30]
k13[43] + k0[31]
k13[44] + k0[32]
k13[45] + k0[33]
k13[46] + k0[34]
k13[47] + k0[35]
k13[48] + k0[36]
k13[49] + k0[37]
k13[50] + k0[38]
k13[51] + k0[39]
k13[52] + k0[40]
k13[53] + k0[41]
k13[54] + k0[42]
k13[55] + k0[43]
k13[56] + k0[44]
k13[57] + k0[45]
k13[58] + k0[46]
k13[59] + k0[47]
k13[60] + k0[48]
k13[61] + k0[49]
k13[62] + k0[50]
k13[63] + k0[51]
k14[0] + k0[7]
k14[1] + k0[8]
k14[2] + k0[9]
k14[3] + k0[10]
k14[4] + k0[11]
k14[5] + k0[12]
k14[6] + k0[13]
k14[7] + k0[14]
k14[8] + k0[15]
k14[9] + k0[16]
k14[10] + k0[17]
k14[11] + k0[18]
k14[12] + k0[19]
k14[13] + k0[20]
k14[14] + k0[21]
k14[15] + k0[22]
k14[16] + k0[23]
k14[17] + k0[24]
k14[18] + k0[25]
k14[19] + k0[26]
k14[20] + k0[27]
k14[21] + k0[28]
k14[22] + k0[29]
k14[23] + k0[30]
k14[24] + k0[31]
k14[25] + k0[32]
k14[26] + k0[33]
k14[27] + k0[34]
k14[28] + k0[35]
k14[29] + k0[36]
k14[30] + k0[37]
k14[31] + k0[38]
k14[32] + k0[39]
k14[33] + k0[40]
k14[34] + k0[41]
k14[35] + k0[42]
k14[36] + k0[43]
k14[37] + k0[44]
k14[38] + k0[45]
k14[39] + k0[46]
k14[40] + k0[47]
k14[41] + k0[48]
k14[42] + k0[49]
k14[43] + k0[50]
k14[44] + k0[51]
k14[45] + k0[52]
k14[46] + k0[53]
k14[47] + k0[54]
k14[48] + k0[55]
k14[49] + k0[56]
k14[50] + k0[57]
k14[51] + k0[58]
k14[52] + k0[59]
k14[53] + k0[60]
k14[54] + k0[61]
k14[55] + k0[62]
k14[56] + k0[63]
k14[57] + k1[45]
k14[58] + k1[46]
k14[59] + k1[47]
k14[60] + k1[48]
k14[61] + k1[49]
k14[62] + k1[50]
k14[63] + k1[51]
k15[0] + k0[26]
k15[1] + k0[27]
k15[2] + k0[28]
k15[3] + k0[29]
k15[4] + k0[30]
k15[5] + k0[31]
k15[6] + k0[32]
k15[7] + k0[33]
k15[8] + k0[34]
k15[9] + k0[35]
k15[10] + k0[36]
k15[11] + k0[37]
k15[12] + k0[38]
k15[13] + k0[39]
k15[14] + k0[40]
k15[15] + k0[41]
k15[16] + k0[42]
k15[17] + k0[43]
k15[18] + k0[44]
k15[19] + k0[45]
k15[20] + k0[46]
k15[21] + k0[47]
k15[22] + k0[48]
k15[23] + k0[49]
k15[24] + k0[50]
k15[25] + k0[51]
k15[26] + k0[52]
k15[27] + k0[53]
k15[28] + k0[54]
k15[29] + k0[55]
k15[30] + k0[56]
k15[31] + k0[57]
k15[32] + k0[58]
k15[33] + k0[59]
k15[34] + k0[60]
k15[35] + k0[61]
k15[36] + k0[62]
k15[37] + k0[63]
k15[38] + k1[45]
k15[39] + k1[46]
k15[40] + k1[47]
k15[41] + k1[48]
k15[42] + k1[49]
k15[43] + k1[50]
k15[44] + k1[51]
k15[45] + k1[52]
k15[46] + k1[53]
k15[47] + k1[54]
k15[48] + k1[55]
k15[49] + k1[56]
k15[50] + k1[57]
k15[51] + k1[58]
k15[52] + k1[59]
k15[53] + k1[60]
k15[54] + k0[0]
k15[55] + k0[1]
k15[56] + k0[2]
k15[57] + k0[3]
k15[58] + k0[4]
k15[59] + k0[5]
k15[60] + k0[6]
k15[61] + k0[7]
k15[62] + k0[8]
k15[63] + k0[9]
k16[0] + k0[45]
k16[1] + k0[46]
k16[2] + k0[47]
k16[3] + k0[48]
k16[4] + k0[49]
k16[5] + k0[50]
k16[6] + k0[51]
k16[7] + k0[52]
k16[8] + k0[53]
k16[9] + k0[54]
k16[10] + k0[55]
k16[11] + k0[56]
k16[12] + k0[57]
k16[13] + k0[58]
k16[14] + k0[59]
k16[15] + k0[60]
k16[16] + k0[61]
k16[17] + k0[62]
k16[18] + k0[63]
k16[19] + k1[45]
k16[20] + k1[46]
k16[21] + k1[47]
k16[22] + k1[48]
k16[23] + k1[49]
k16[24] + k1[50]
k16[25] + k1[51]
k16[26] + k1[52]
k16[27] + k1[53]
k16[28] + k1[54]
k16[29] + k1[55]
k16[30] + k1[56]
k16[31] + k1[57]
k16[32] + k1[58]
k16[33] + k1[59]
k16[34] + k1[60]
k16[35] + k0[0]
k16[36] + k0[1]
k16[37] + k0[2]
k16[38] + k0[3]
k16[39] + k0[4]
k16[40] + k0[5]
k16[41] + k0[6]
k16[42] + k0[7]
k16[43] + k0[8]
k16[44] + k0[9]
k16[45] + k0[10]
k16[46] + k0[11]
k16[47] + k0[12]
k16[48] + k0[13]
k16[49] + k0[14]
k16[50] + k0[15]
k16[51] + k0[16]
k16[52] + k0[17]
k16[53] + k0[18]
k16[54] + k0[19]
k16[55] + k0[20]
k16[56] + k0[21]
k16[57] + k0[22]
k16[58] + k0[23]
k16[59] + k0[24]
k16[60] + k0[25]
k16[61] + k0[26]
k16[62] + k0[27]
k16[63] + k0[28]
k17[0] + k1[45]
k17[1] + k1[46]
k17[2] + k1[47]
k17[3] + k1[48]
k17[4] + k1[49]
k17[5] + k1[50]
k17[6] + k1[51]
k17[7] + k1[52]
k17[8] + k1[53]
k17[9] + k1[54]
k17[10] + k1[55]
k17[11] + k1[56]
k17[12] + k1[57]
k17[13] + k1[58]
k17[14] + k1[59]
k17[15] + k1[60]
k17[16] + k0[0]
k17[17] + k0[1]
k17[18] + k0[2]
k17[19] + k0[3]
k17[20] + k0[4]
k17[21] + k0[5]
k17[22] + k0[6]
k17[23] + k0[7]
k17[24] + k0[8]
k17[25] + k0[9]
k17[26] + k0[10]
k17[27] + k0[11]
k17[28] + k0[12]
k17[29] + k0[13]
k17[30] + k0[14]
k17[31] + k0[15]
k17[32] + k0[16]
k17[33] + k0[17]
k17[34] + k0[18]
k17[35] + k0[19]
k17[36] + k0[20]
k17[37] + k0[21]
k17[38] + k0[22]
k17[39] + k0[23]
k17[40] + k0[24]
k17[41] + k0[25]
k17[42] + k0[26]
k17[43] + k0[27]
k17[44] + k0[28]
k17[45] + k0[29]
k17[46] + k0[30]
k17[47] + k0[31]
k17[48] + k0[32]
k17[49] + k0[33]
k17[50] + k0[34]
k17[51] + k0[35]
k17[52] + k0[36]
k17[53] + k0[37]
k17[54] + k0[38]
k17[55] + k0[39]
k17[56] + k0[40]
k17[57] + k0[41]
k17[58] + k0[42]
k17[59] + k0[43]
k17[60] + k0[44]
k17[61] + k0[45]
k17[62] + k0[46]
k17[63] + k0[47]
k18[0] + k0[3]
k18[1] + k0[4]
k18[2] + k0[5]
k18[3] + k0[6]
k18[4] + k0[7]
k18[5] + k0[8]
k18[6] + k0[9]
k18[7] + k0[10]
k18[8] + k0[11]
k18[9] + k0[12]
k18[10] + k0[13]
k18[11] + k0[14]
k18[12] + k0[15]
k18[13] + k0[16]
k18[14] + k0[17]
k18[15] + k0[18]
k18[16] + k0[19]
k18[17] + k0[20]
k18[18] + k0[21]
k18[19] + k0[22]
k18[20] + k0[23]
k18[21] + k0[24]
k18[22] + k0[25]
k18[23] + k0[26]
k18[24] + k0[27]
k18[25] + k0[28]
k18[26] + k0[29]
k18[27] + k0[30]
k18[28] + k0[31]
k18[29] + k0[32]
k18[30] + k0[33]
k18[31] + k0[34]
k18[32] + k0[35]
k18[33] + k0[36]
k18[34] + k0[37]
k18[35] + k0[38]
k18[36] + k0[39]
k18[37] + k0[40]
k18[38] + k0[41]
k18[39] + k0[42]
k18[40] + k0[43]
k18[41] + k0[44]
k18[42] + k0[45]
k18[43] + k0[46]
k18[44] + k0[47]
k18[45] + k0[48]
k18[46] + k0[49]
k18[47] + k0[50]
k18[48] + k0[51]
k18[49] + k0[52]
k18[50] + k0[53]
k18[51] + k0[54]
k18[52] + k0[55]
k18[53] + k0[56]
k18[54] + k0[57]
k18[55] + k0[58]
k18[56] + k0[59]
k18[57] + k0[60]
k18[58] + k0[61]
k18[59] + k0[62]
k18[60] + k0[63]
k18[61] + k1[45]
k18[62] + k1[46]
k18[63] + k1[47]
k19[0] + k0[22]
k19[1] + k0[23]
k19[2] + k0[24]
k19[3] + k0[25]
k19[4] + k0[26]
k19[5] + k0[27]
k19[6] + k0[28]
k19[7] + k0[29]
k19[8] + k0[30]
k19[9] + k0[31]
k19[10] + k0[32]
k19[11] + k0[33]
k19[12] + k0[34]
k19[13] + k0[35]
k19[14] + k0[36]
k19[15] + k0[37]
k19[16] + k0[38]
k19[17] + k0[39]
k19[18] + k0[40]
k19[19] + k0[41]
k19[20] + k0[42]
k19[21] + k0[43]
k19[22] + k0[44]
k19[23] + k0[45]
k19[24] + k0[46]
k19[25] + k0[47]
k19[26] + k0[48]
k19[27] + k0[49]
k19[28] + k0[50]
k19[29] + k0[51]
k19[30] + k0[52]
k19[31] + k0[53]
k19[32] + k0[54]
k19[33] + k0[55]
k19[34] + k0[56]
k19[35] + k0[57]
k19[36] + k0[58]
k19[37] + k0[59]
k19[38] + k0[60]
k19[39] + k0[61]
k19[40] + k0[62]
k19[41] + k0[63]
k19[42] + k1[45]
k19[43] + k1[46]
k19[44] + k1[47]
k19[45] + k1[48]
k19[46] + k1[49]
k19[47] + k1[50]
k19[48] + k1[51]
k19[49] + k1[52]
k19[50] + k1[53]
k19[51] + k1[54]
k19[52] + k1[55]
k19[53] + k1[56]
k19[54] + k1[57]
k19[55] + k1[58]
k19[56] + k1[59]
k19[57] + k1[60]
k19[58] + k0[0]
k19[59] + k0[1]
k19[60] + k0[2]
k19[61] + k0[3]
k19[62] + k0[4]
k19[63] + k0[5]
